digraph G {
0 [label="Block 0"];
1 [label="{ 1"];
2 [label="OperatorsList 2"];
3 [label="} 3"];
4 [label="Operator 4"];
5 [label="Tail 5"];
6 [label="; 6"];
7 [label="Operator 7"];
8 [label="Tail 8"];




9 [label="ε 9"];
10 [label="Block 10"];
11 [label="{ 11"];
12 [label="OperatorsList 12"];
13 [label="} 13"];
14 [label="Operator 14"];
15 [label="Tail 15"];
16 [label="; 16"];
17 [label="Operator 17"];
18 [label="Tail 18"];
19 [label="ε 19"];
20 [label="Block 20"];
21 [label="{ 21"];
22 [label="OperatorsList 22"];
23 [label="} 23"];
24 [label="Operator 24"];
25 [label="Tail 25"];
26 [label="ε 26"];
27 [label="Identifier 27"];
28 [label="= 28"];
29 [label="Expression 29"];
30 [label="SimpleExpression 30"];
31 [label="Expression' 31"];
32 [label="ε 32"];
33 [label="Term 33"];
34 [label="SimpleExpression' 34"];
35 [label="ε 35"];
36 [label="Factor 36"];
37 [label="Term' 37"];
38 [label="ε 38"];
39 [label="Constant 39"];
40 [label="const 40"];
41 [label="c 41"];
42 [label="Identifier 42"];
43 [label="= 43"];
44 [label="Expression 44"];
45 [label="SimpleExpression 45"];
46 [label="Expression' 46"];
47 [label="RelationOperation 47"];
48 [label="SimpleExpression 48"];
49 [label="Term 49"];
50 [label="SimpleExpression' 50"];
51 [label="ε 51"];
52 [label="Factor 52"];
53 [label="Term' 53"];
54 [label="ε 54"];
55 [label="Identifier 55"];
56 [label="a 56"];
57 [label="<> 57"];
58 [label="Term 58"];
59 [label="SimpleExpression' 59"];
60 [label="ε 60"];
61 [label="Factor 61"];
62 [label="Term' 62"];
63 [label="ε 63"];
64 [label="Identifier 64"];
65 [label="a 65"];
66 [label="a 66"];
67 [label="Identifier 67"];
68 [label="= 68"];
69 [label="Expression 69"];
70 [label="SimpleExpression 70"];
71 [label="Expression' 71"];
72 [label="RelationOperation 72"];
73 [label="SimpleExpression 73"];
74 [label="Term 74"];
75 [label="SimpleExpression' 75"];
76 [label="ε 76"];
77 [label="Factor 77"];
78 [label="Term' 78"];
79 [label="MultiplicationOperation 79"];
80 [label="Factor 80"];
81 [label="Term' 81"];
82 [label="MultiplicationOperation 82"];
83 [label="Factor 83"];
84 [label="Term' 84"];
85 [label="ε 85"];
86 [label="Identifier 86"];
87 [label="a 87"];
88 [label="div 88"];
89 [label="Identifier 89"];
90 [label="b 90"];
91 [label="* 91"];
92 [label="( 92"];
93 [label="SimpleExpression 93"];
94 [label=") 94"];
95 [label="Term 95"];
96 [label="SimpleExpression' 96"];
97 [label="AdditionOperation 97"];
98 [label="Term 98"];
99 [label="SimpleExpression' 99"];
100 [label="ε 100"];
101 [label="Factor 101"];
102 [label="Term' 102"];
103 [label="ε 103"];
104 [label="Identifier 104"];
105 [label="b 105"];
106 [label="+ 106"];
107 [label="Factor 107"];
108 [label="Term' 108"];
109 [label="ε 109"];
110 [label="Factor 110"];
111 [label="Identifier 111"];
112 [label="a 112"];
113 [label="< 113"];
114 [label="Sign 114"];
115 [label="Term 115"];
116 [label="SimpleExpression' 116"];
117 [label="AdditionOperation 117"];
118 [label="Term 118"];
119 [label="SimpleExpression' 119"];
120 [label="ε 120"];
121 [label="Factor 121"];
122 [label="Term' 122"];
123 [label="ε 123"];
124 [label="Constant 124"];
125 [label="const 125"];
126 [label="+ 126"];
127 [label="Factor 127"];
128 [label="Term' 128"];
129 [label="ε 129"];
130 [label="Identifier 130"];
131 [label="b 131"];
132 [label="- 132"];
133 [label="a 133"];
0->1 ;
0->2 ;
0->3 ;
2->4 ;
2->5 ;
4->67 ;
4->68 ;
4->69 ;
5->6 ;
5->7 ;
5->8 ;
7->10 ;
8->9 ;
10->11 ;
10->12 ;
10->13 ;
12->14 ;
12->15 ;
14->42 ;
14->43 ;
14->44 ;
15->16 ;
15->17 ;
15->18 ;
17->20 ;
18->19 ;
20->21 ;
20->22 ;
20->23 ;
22->24 ;
22->25 ;
24->27 ;
24->28 ;
24->29 ;
25->26 ;
27->41 ;
29->30 ;
29->31 ;
30->33 ;
30->34 ;
31->32 ;
33->36 ;
33->37 ;
34->35 ;
36->39 ;
37->38 ;
39->40 ;
42->66 ;
44->45 ;
44->46 ;
45->58 ;
45->59 ;
46->47 ;
46->48 ;
47->57 ;
48->49 ;
48->50 ;
49->52 ;
49->53 ;
50->51 ;
52->55 ;
53->54 ;
55->56 ;
58->61 ;
58->62 ;
59->60 ;
61->64 ;
62->63 ;
64->65 ;
67->133 ;
69->70 ;
69->71 ;
70->114 ;
70->115 ;
70->116 ;
71->72 ;
71->73 ;
72->113 ;
73->74 ;
73->75 ;
74->77 ;
74->78 ;
75->76 ;
77->92 ;
77->93 ;
77->94 ;
78->79 ;
78->80 ;
78->81 ;
79->91 ;
80->89 ;
81->82 ;
81->83 ;
81->84 ;
82->88 ;
83->86 ;
84->85 ;
86->87 ;
89->90 ;
93->95 ;
93->96 ;
95->107 ;
95->108 ;
96->97 ;
96->98 ;
96->99 ;
97->106 ;
98->101 ;
98->102 ;
99->100 ;
101->104 ;
102->103 ;
104->105 ;
107->110 ;
108->109 ;
110->111 ;
111->112 ;
114->132 ;
115->127 ;
115->128 ;
116->117 ;
116->118 ;
116->119 ;
117->126 ;
118->121 ;
118->122 ;
119->120 ;
121->124 ;
122->123 ;
124->125 ;
127->130 ;
128->129 ;
130->131 ;
}
digraph G {
0;
1;
2;
3;
4;
5;
6;
7;
8;
9;
10;
11;
12;
13;
14;
15;
16;
17;
18;
19;
20;
21;
22;
23;
24;
25;
26;
27;
28;
29;
30;
31;
32;
33;
34;
35;
36;
37;
38;
39;
40;
41;
42;
43;
44;
45;
46;
47;
48;
49;
50;
51;
52;
53;
54;
55;
56;
57;
58;
59;
60;
61;
62;
63;
64;
65;
66;
67;
68;
69;
70;
71;
72;
73;
74;
75;
76;
77;
78;
79;
80;
81;
82;
83;
84;
85;
86;
87;
88;
89;
90;
91;
92;
93;
94;
95;
96;
97;
98;
99;
100;
101;
102;
103;
104;
105;
106;
107;
108;
109;
110;
111;
112;
113;
114;
115;
116;
117;
118;
119;
120;
121;
122;
123;
124;
125;
126;
127;
128;
129;
130;
131;
132;
133;
0->1 ;
0->2 ;
0->3 ;
2->4 ;
2->5 ;
4->67 ;
4->68 ;
4->69 ;
5->6 ;
5->7 ;
5->8 ;
7->10 ;
8->9 ;
10->11 ;
10->12 ;
10->13 ;
12->14 ;
12->15 ;
14->42 ;
14->43 ;
14->44 ;
15->16 ;
15->17 ;
15->18 ;
17->20 ;
18->19 ;
20->21 ;
20->22 ;
20->23 ;
22->24 ;
22->25 ;
24->27 ;
24->28 ;
24->29 ;
25->26 ;
27->41 ;
29->30 ;
29->31 ;
30->33 ;
30->34 ;
31->32 ;
33->36 ;
33->37 ;
34->35 ;
36->39 ;
37->38 ;
39->40 ;
42->66 ;
44->45 ;
44->46 ;
45->58 ;
45->59 ;
46->47 ;
46->48 ;
47->57 ;
48->49 ;
48->50 ;
49->52 ;
49->53 ;
50->51 ;
52->55 ;
53->54 ;
55->56 ;
58->61 ;
58->62 ;
59->60 ;
61->64 ;
62->63 ;
64->65 ;
67->133 ;
69->70 ;
69->71 ;
70->114 ;
70->115 ;
70->116 ;
71->72 ;
71->73 ;
72->113 ;
73->74 ;
73->75 ;
74->77 ;
74->78 ;
75->76 ;
77->92 ;
77->93 ;
77->94 ;
78->79 ;
78->80 ;
78->81 ;
79->91 ;
80->89 ;
81->82 ;
81->83 ;
81->84 ;
82->88 ;
83->86 ;
84->85 ;
86->87 ;
89->90 ;
93->95 ;
93->96 ;
95->107 ;
95->108 ;
96->97 ;
96->98 ;
96->99 ;
97->106 ;
98->101 ;
98->102 ;
99->100 ;
101->104 ;
102->103 ;
104->105 ;
107->110 ;
108->109 ;
110->111 ;
111->112 ;
114->132 ;
115->127 ;
115->128 ;
116->117 ;
116->118 ;
116->119 ;
117->126 ;
118->121 ;
118->122 ;
119->120 ;
121->124 ;
122->123 ;
124->125 ;
127->130 ;
128->129 ;
130->131 ;
}
